{ax ch chh aa} {v ih k ax l p}.	{ax ch chh aa} {v ih k ax l p}	0
{b ax ddh aa ih y aa n}!	{b ax ddh aa ih y aa n}!	0
{b ax ddh aa ih y aa n}.	{b ax ddh aa ih y aa n}.	0
{bh uw l n aa} {m ax th}.	{bh uw l } {n aa} {m ax th}.	0